Day 2 - Advent of Code 2023 – ~ jim
…
[1] "c(\"1 red\", \"5 red\", \"13 red\", \"6 red\", \"16 red\")"           
[2] "c(\"3 red\", \"3 red\", \"3 red\", \"2 red\")"                        
[3] "c(\"5 red\", \"3 red\", \"1 red\", \"1 red\", \"10 red\", \"12 red\")"

I love it. Ursula is really showing how well she knows her R data types and their coercion!

Another thing to highlight for me is a difference between dataframes and tibbles. I’m used to the tidyverse, where subsetting a tibble with square brackets still returns a tibble

iris_tibbilicus <- tibble::as_tibble(iris)

iris_tibbilicus[iris_tibbilicus$Species == "setosa", "Sepal.Length"]

# A tibble: 50 × 1
   Sepal.Length
          <dbl>
 1          5.1
 2          4.9
 3          4.7
 4          4.6
 5          5  
 6          5.4
 7          4.6
 8          5  
 9          4.4
10          4.9
# ℹ 40 more rows
…
